IdentMongo;identCKAN;FlagModificada
154b9602-761d-48e4-abf7-afcc31a363cf;;Off
4a9d4be3-8bdc-4060-9f97-b21899bb13dc;;Off
1947d02f-1636-4b7b-84ac-3a5935dfc261;;Off
04532cfc-942f-40da-9498-4f33583e0934;;Off
9a37f191-10ee-4570-b8ab-ec231ad47a60;;Off
